choco-progs
Chocolatey v2.1.0
7zip 23.1.0
7zip.install 23.1.0
adb 34.0.1.20230514
altsnap 1.60.0
autohotkey.install 1.1.37.1
bat 0.23.0
brave 1.52.130
chocolatey 2.1.0
chocolatey-compatibility.extension 1.0.0
chocolatey-core.extension 1.4.0
chocolatey-dotnetfx.extension 1.0.1
chocolatey-font-helpers.extension 0.0.4
chocolatey-visualstudio.extension 1.11.0
chocolatey-windowsupdate.extension 1.0.5
DotNet4.5.2 4.5.2.20140902
dotnet-7.0-desktopruntime 7.0.9
dotnet-desktopruntime 7.0.9
dotnetfx 4.8.0.20220524
emacs 28.2.0
emacs.portable 28.2.0
Everything 1.4.11024
fd 8.7.0
ferdium 6.4.0
Firefox 115.0.2
flameshot 12.1.0
git 2.41.0
git.install 2.41.0
grep 3.7.0
JetBrainsMonoNF 3.0.2
KB2919355 1.0.20160915
KB2919442 1.0.20160915
KB2999226 1.0.20181019
KB3033929 1.0.5
KB3035131 1.0.3
KB3063858 1.0.0
KB3118401 1.0.5
lazygit 0.38.2
less 633.0.0
lf 0.26.0
libreoffice 5.4.4.20180111
libreoffice-fresh 7.5.3
microsoft-windows-terminal 1.17.11461
mingw 12.2.0.3042023
neovide 0.10.4
neovide.install 0.10.4
neovim 0.9.1.20230531
nerd-fonts-JetBrainsMono 3.0.2
nodejs.install 20.4.0
notepadplusplus 8.5.4
notepadplusplus.install 8.5.4
nvm 1.1.9
nvm.install 1.1.11
obsidian 1.3.5
obs-studio 29.1.3
obs-studio.install 29.1.3
oh-my-posh 17.11.2
powershell-core 7.3.6
powertoys 0.71.0
psutils 2020.2.28
python 3.11.4
python3 3.11.4
python311 3.11.4
python3-virtualenv 20.24.0
rclone 1.63.0
rclone.portable 1.63.0
ripgrep 13.0.0.20220913
rustup.install 1.25.1
steam 2.10.91.91221129
terminal-icons.powershell 0.11.0
universal-adb-drivers 1.0.4
unzip 6.0.0
vb-cable 43.0.0
vcredist140 14.36.32532
vcredist2015 14.0.24215.20170201
vcredist2017 14.16.27033
visualstudio2022buildtools 117.6.3
visualstudio2022professional 117.6.3
visualstudio2022-workload-manageddesktopbuildtools 1.0.0
visualstudio-installer 2.0.3
vlc 3.0.18
vlc.install 3.0.18
vscode 1.80.1
vscode.install 1.80.1
Wget 1.21.4
win2003-mklink 1.6.0.20140724
zoom 5.15.3.18551
86 packages installed.
