{
  "app_specific_configuration_path": "$Env:USERPROFILE/applications.yaml",
  "window_hiding_behaviour": "Cloak",
  "cross_monitor_move_behaviour": "Insert",
  "focus_follows_mouse": "Windows",
  // "alt_focus_hack": true,
  "default_workspace_padding": 5,
  "default_container_padding": 5,
  "active_window_border": true,
  "active_window_border_width": 12,
  "active_window_border_colours": {
    "single": { "r": 66, "g": 165, "b": 245 },
    "stack": { "r": 256, "g": 165, "b": 66 },
    "monocle": { "r": 255, "g": 51, "b": 153 }
  },
  "monitors": [
    {
      "workspaces": [
        { "name": "I", "layout": "BSP" },
        { "name": "II", "layout": "VerticalStack" },
        { "name": "III", "layout": "HorizontalStack" },
        { "name": "IV", "layout": "UltrawideVerticalStack" },
        { "name": "V", "layout": "Rows" }
      ]
    },
    {
      "workspaces": [
        { "name": "I", "layout": "Rows" },
        { "name": "II", "layout": "Rows" },
        { "name": "III", "layout": "Rows" },
        { "name": "IV", "layout": "Rows" },
        { "name": "V", "layout": "Rows" }
      ]
    }
  ]
}
